{
    "llvm-target": "x86_64-unknown-none",
    "data-layout": "e-m:e-p270:32:32-p271:32:32-p272:64:64-i64:64-i128:128-f80:128-n8:16:32:64-S128",
    "arch": "x86_64",
    "target-endian": "little",
    "target-c-int-width": "32",
    "target-pointer-width": "64",
    "os": "none",
    "features": "-mmx,-sse,+soft-float",
    "linker-flavor": "ld.lld",
    "linker": "rust-lld",
    "disable-redzone": true,
    "panic-strategy": "abort",
    "executables": true
}
